<?xml version="1.0" encoding="UTF-8" standalone="no"?>
<!-- Created with Inkscape (http://www.inkscape.org/) -->

<svg
   xmlns:dc="http://purl.org/dc/elements/1.1/"
   xmlns:cc="http://creativecommons.org/ns#"
   xmlns:rdf="http://www.w3.org/1999/02/22-rdf-syntax-ns#"
   xmlns:svg="http://www.w3.org/2000/svg"
   xmlns="http://www.w3.org/2000/svg"
   xmlns:sodipodi="http://sodipodi.sourceforge.net/DTD/sodipodi-0.dtd"
   xmlns:inkscape="http://www.inkscape.org/namespaces/inkscape"
   width="80.262115"
   height="96.935463"
   id="svg4503"
   version="1.1"
   inkscape:version="0.91 r13725"
   sodipodi:docname="france.svg">
  <defs
     id="defs4505" />
  <sodipodi:namedview
     id="base"
     pagecolor="#ffffff"
     bordercolor="#666666"
     borderopacity="1.0"
     inkscape:pageopacity="0"
     inkscape:pageshadow="2"
     inkscape:zoom="5.30761"
     inkscape:cx="40.131061"
     inkscape:cy="48.467732"
     inkscape:document-units="px"
     inkscape:current-layer="g23064"
     showgrid="false"
     inkscape:window-width="960"
     inkscape:window-height="1028"
     inkscape:window-x="2880"
     inkscape:window-y="24"
     inkscape:window-maximized="0"
     fit-margin-top="0"
     fit-margin-left="0"
     fit-margin-right="0"
     fit-margin-bottom="0"
     showguides="true"
     inkscape:guide-bbox="true" />
  <metadata
     id="metadata4508">
    <rdf:RDF>
      <cc:Work
         rdf:about="">
        <dc:format>image/svg+xml</dc:format>
        <dc:type
           rdf:resource="http://purl.org/dc/dcmitype/StillImage" />
        <dc:title></dc:title>
      </cc:Work>
    </rdf:RDF>
  </metadata>
  <g
     inkscape:groupmode="layer"
     id="layer2"
     inkscape:label="Layer"
     style="display:inline"
     transform="translate(-559.86894,-391.07117)">
    <g
       id="g23064">
      <g
         style="fill:#ffd700;stroke:none;fill-opacity:1"
         id="g42469"
         transform="matrix(0.8732691,0,0,0.8732691,28.957416,137.17726)">
        <g
           style="fill:#ffd700;stroke:none;fill-opacity:1"
           id="g42471">
          <path
             sodipodi:nodetypes="ssssscssssscs"
             inkscape:connector-curvature="0"
             id="path42473"
             d="m 643.76394,389.08739 c -1.29468,-7.11568 4.67341,-8.88102 6.55436,-23.59441 1.3627,-10.65947 -2.57649,-27.12145 -7.61242,-35.04123 -5.03593,-7.91979 -10.60278,-11.20968 -10.79793,-19.26184 -0.1071,-4.41888 1.91465,-8.50949 7.70091,-11.25705 4.39972,-2.08917 11.39383,-4.94682 14.30479,-9.19326 2.91095,4.24644 9.90506,7.10409 14.30478,9.19326 5.78626,2.74756 7.80801,6.83817 7.70092,11.25705 -0.19516,8.05216 -5.762,11.34205 -10.79793,19.26184 -5.03593,7.91978 -8.97512,24.38176 -7.61242,35.04123 1.88094,14.71339 7.84903,16.47873 6.55435,23.59441 -1.06479,5.85216 -6.22914,7.20652 -10.1497,12.65518 -3.92057,-5.44866 -9.08492,-6.80302 -10.14971,-12.65518 z"
             style="fill:#ffd700;fill-opacity:1;stroke:none" />
          <path
             sodipodi:nodetypes="csssscsscccsscssssccccsssc"
             inkscape:connector-curvature="0"
             id="path42475"
             d="m 636.6875,320 c -2.93947,-1.59246 4.28736,5.38586 6.88752,9.47501 5.34432,8.40477 9.0627,25.01529 7.63126,36.21249 -0.96423,7.54253 -2.57342,11.61183 -4.14871,14.79772 -1.57529,3.18589 -2.54139,4.91524 -1.96875,8.0625 0.46137,2.5357 1.82233,4.27125 3.66118,5.95228 0,0 -1.85994,-3.31125 -1.76035,-6.0941 0.15079,-4.2134 3.21716,-7.87481 4.55591,-14.37269 1.07125,-5.19949 1.98497,-11.9838 1.98497,-11.9838 C 653.2831,343.46387 650.44972,327.45571 636.6875,320 z m 18.53982,42.65031 c 0.16925,2.50799 -0.39793,4.80443 -0.13873,7.37988 0.67766,6.73323 4.05325,11.73001 4.1022,17.36528 0.0447,5.14595 -2.20613,6.21935 -4.33038,11.34917 1.78841,-2.08535 2.69726,-2.86897 4.20209,-4.24464 1.83886,-1.68103 3.10113,-3.12055 3.5625,-5.65625 0.57264,-3.14726 -0.39345,-4.87661 -1.96875,-8.0625 -1.5753,-3.18589 -3.26704,-7.73246 -4.23127,-15.27499 -1.4318,-11.19998 2.13842,-27.44755 7.48127,-35.85001 2.59942,-4.088 5.29072,-6.95356 7.25,-9.65625 1.95928,-2.70269 3.19168,-5.14836 3.28125,-8.84375 0.0958,-3.95465 -1.44598,-7.34316 -6.84375,-9.90625 3.46608,3.88052 5.37751,9.05226 3.9011,13.20757 -1.93773,5.4537 -7.87049,10.16661 -10.33069,15.40541 -3.01454,6.41923 -4.34996,13.10968 -5.4372,20.11766 -0.6582,4.24251 -0.49964,12.66967 -0.49964,12.66967 z"
             style="fill:#ffd700;fill-opacity:1;stroke:none" />
          <path
             sodipodi:nodetypes="cc"
             inkscape:connector-curvature="0"
             id="path42477"
             d="m 653.91365,291.04535 0,110.12363"
             style="fill:#ffd700;stroke:none;fill-opacity:1" />
          <path
             id="path42479"
             d="m 652.28125,294.90625 c -2.66084,5.43199 -12.34163,7.13192 -12,13.3125 0.5472,9.89954 7.30076,8.78395 11.5625,16.0625 l 0.4375,-29.375 z m 3.0625,1.78125 0.5625,27.375 c 2.27504,-7.27855 7.79655,-3.44421 8.34375,-13.34375 0.34163,-6.18058 -6.24541,-8.54981 -8.90625,-14.03125 z m -2.96875,84.15625 c 0,0 -3.61531,6.38034 -3.28125,9.8125 0.3746,3.84873 3.5625,6.15625 3.5625,6.15625 L 652.375,380.84375 z"
             style="fill:#ffd700;fill-opacity:1;stroke:none"
             inkscape:connector-curvature="0" />
        </g>
        <g
           style="fill:#ffd700;stroke:none;fill-opacity:1"
           id="g42481"
           transform="matrix(-1,0,0,1,1307.8273,0)">
          <g
             style="fill:#ffd700;stroke:none;fill-opacity:1"
             id="g42483">
            <path
               sodipodi:nodetypes="csssscsssc"
               inkscape:connector-curvature="0"
               id="path42485"
               d="m 626.17665,360.00856 c 0,0 -17.22854,-0.84744 -18.194,-16.67783 -0.53536,-8.77803 7.98172,-17.47832 16.98106,-16.67782 17.03742,1.5155 24.09546,20.25991 22.74249,34.87182 -0.80459,8.6895 -4.62734,24.11188 -14.55519,24.56189 -6.57262,0.29793 -10.21981,-4.61881 -10.0067,-11.82609 1.24126,1.24126 3.82849,5.57642 9.62364,4.62663 3.54387,-0.58082 8.08424,-2.63958 9.48006,-15.54303 0.92707,-8.57017 -2.23825,-18.90823 -9.097,-18.49723 -11.32391,0.67857 -6.97436,15.16166 -6.97436,15.16166 z"
               style="fill:#ffd700;fill-opacity:1;stroke:none" />
            <path
               style="fill:#ffd700;fill-opacity:1;stroke:none"
               d="m 624.3125,358.28125 c -0.28483,-1.48934 -0.51269,-3.44887 -0.3125,-5.71875 0.17929,-2.03288 0.71824,-4.20457 2.15625,-5.96875 1.43801,-1.76418 3.76386,-2.9992 6.90625,-3.1875 2.08203,-0.12476 3.98785,0.60154 5.46875,1.84375 1.4809,1.24221 2.57614,2.95282 3.40625,4.90625 1.66021,3.90687 2.23908,8.82252 1.75,13.34375 -0.1186,1.09634 0.71382,1.53446 0.55169,2.59681 -0.8153,5.34226 -3.13401,10.70567 -4.80169,12.79991 -1.99931,2.5107 -4.49535,3.36919 -6.4375,3.6875 -3.27716,0.53711 -6.24425,-2.08527 -7.59375,-4.02172 -0.14223,-0.20409 -0.19081,-0.22179 -0.375,-0.375 0.35839,1.53939 0.88141,2.88349 1.6875,3.875 1.42436,1.752 3.46081,2.72585 6.375,2.59375 4.22721,-0.19161 7.27686,-3.57857 9.46875,-8.34375 2.19189,-4.76518 3.32861,-10.6928 3.71875,-14.90625 -0.47113,-21.83522 -16.55585,-28.7929 -24.2115,-20.6716 -7.28066,7.72349 -2.81288,17.51576 2.24275,17.5466 z"
               id="path42487"
               inkscape:connector-curvature="0"
               sodipodi:nodetypes="csssssssssscssscsc" />
          </g>
          <path
             style="fill:#ffd700;fill-opacity:1;stroke:none"
             d="m 638.70623,336.40503 c -6.84795,-9.67476 -18.63555,-8.62652 -23.51025,-4.00497 -2.8754,2.72606 -6.78775,8.1438 -2.93931,16.88176 -0.0255,-7.9677 1.94898,-11.15885 5.06731,-13.44407 4.61317,-3.3807 12.67707,-3.92109 21.38225,0.56728 z"
             id="path42489"
             inkscape:connector-curvature="0"
             sodipodi:nodetypes="cscsc" />
        </g>
        <g
           style="fill:#ffd700;stroke:none;fill-opacity:1"
           id="g42491">
          <g
             style="fill:#ffd700;stroke:none;fill-opacity:1"
             id="g42493">
            <path
               style="fill:#ffd700;fill-opacity:1;stroke:none"
               d="m 626.17665,360.00856 c 0,0 -17.22854,-0.84744 -18.194,-16.67783 -0.53536,-8.77803 7.98172,-17.47832 16.98106,-16.67782 17.03742,1.5155 24.09546,20.25991 22.74249,34.87182 -0.80459,8.6895 -4.62734,24.11188 -14.55519,24.56189 -6.57262,0.29793 -10.21981,-4.61881 -10.0067,-11.82609 1.24126,1.24126 3.82849,5.57642 9.62364,4.62663 3.54387,-0.58082 8.08424,-2.63958 9.48006,-15.54303 0.92707,-8.57017 -2.23825,-18.90823 -9.097,-18.49723 -11.32391,0.67857 -6.97436,15.16166 -6.97436,15.16166 z"
               id="path42495"
               inkscape:connector-curvature="0"
               sodipodi:nodetypes="csssscsssc" />
            <path
               sodipodi:nodetypes="csssssssssscssscsc"
               inkscape:connector-curvature="0"
               id="path42497"
               d="m 624.3125,358.28125 c -0.28483,-1.48934 -0.51269,-3.44887 -0.3125,-5.71875 0.17929,-2.03288 0.71824,-4.20457 2.15625,-5.96875 1.43801,-1.76418 3.76386,-2.9992 6.90625,-3.1875 2.08203,-0.12476 3.98785,0.60154 5.46875,1.84375 1.4809,1.24221 2.57614,2.95282 3.40625,4.90625 1.66021,3.90687 2.23908,8.82252 1.75,13.34375 -0.1186,1.09634 0.71382,1.53446 0.55169,2.59681 -0.8153,5.34226 -3.13401,10.70567 -4.80169,12.79991 -1.99931,2.5107 -4.49535,3.36919 -6.4375,3.6875 -3.27716,0.53711 -6.24425,-2.08527 -7.59375,-4.02172 -0.14223,-0.20409 -0.19081,-0.22179 -0.375,-0.375 0.35839,1.53939 0.88141,2.88349 1.6875,3.875 1.42436,1.752 3.46081,2.72585 6.375,2.59375 4.22721,-0.19161 7.27686,-3.57857 9.46875,-8.34375 2.19189,-4.76518 3.32861,-10.6928 3.71875,-14.90625 -0.47113,-21.83522 -16.55585,-28.7929 -24.2115,-20.6716 -7.28066,7.72349 -2.81288,17.51576 2.24275,17.5466 z"
               style="fill:#ffd700;fill-opacity:1;stroke:none" />
          </g>
          <path
             sodipodi:nodetypes="cscsc"
             inkscape:connector-curvature="0"
             id="path42499"
             d="m 638.70623,336.40503 c -6.84795,-9.67476 -18.63555,-8.62652 -23.51025,-4.00497 -2.8754,2.72606 -6.78775,8.1438 -2.93931,16.88176 -0.0255,-7.9677 1.94898,-11.15885 5.06731,-13.44407 4.61317,-3.3807 12.67707,-3.92109 21.38225,0.56728 z"
             style="fill:#ffd700;fill-opacity:1;stroke:none" />
        </g>
        <g
           style="fill:#ffd700;stroke:none;fill-opacity:1"
           id="g42501">
          <path
             sodipodi:nodetypes="ccccccc"
             inkscape:connector-curvature="0"
             id="path42503"
             d="m 636.56803,359.4021 34.69124,0 4,4.24527 -4,4.24527 -34.69124,0 -4,-4.24527 z"
             style="fill:#ffd700;fill-opacity:1;stroke:none" />
          <path
             sodipodi:nodetypes="ccccc"
             inkscape:connector-curvature="0"
             id="path42505"
             d="m 637.0625,360.24145 -1.9375,2.03125 37.5625,0 -1.9375,-2.03125 z"
             style="fill:#ffd700;fill-opacity:1;stroke:none" />
          <path
             sodipodi:nodetypes="ccccc"
             inkscape:connector-curvature="0"
             id="path42507"
             d="m 634.97632,365.00855 1.96875,2.0625 33.6875,0 1.96875,-2.0625 z"
             style="fill:#ffd700;fill-opacity:1;stroke:none" />
        </g>
      </g>
    </g>
  </g>
</svg>
