<?xml version="1.0" encoding="UTF-8" standalone="no"?>
<!-- Generator: Adobe Illustrator 16.0.0, SVG Export Plug-In . SVG Version: 6.00 Build 0)  -->

<svg
   xmlns:dc="http://purl.org/dc/elements/1.1/"
   xmlns:cc="http://creativecommons.org/ns#"
   xmlns:rdf="http://www.w3.org/1999/02/22-rdf-syntax-ns#"
   xmlns:svg="http://www.w3.org/2000/svg"
   xmlns="http://www.w3.org/2000/svg"
   xmlns:sodipodi="http://sodipodi.sourceforge.net/DTD/sodipodi-0.dtd"
   xmlns:inkscape="http://www.inkscape.org/namespaces/inkscape"
   version="1.1"
   id="Layer_1"
   x="0px"
   y="0px"
   width="36.499001"
   height="40.502998"
   viewBox="0 0 36.499001 40.502998"
   enable-background="new 0 0 54 54"
   xml:space="preserve"
   inkscape:version="0.91 r13725"
   sodipodi:docname="people.svg"><metadata
     id="metadata435"><rdf:RDF><cc:Work
         rdf:about=""><dc:format>image/svg+xml</dc:format><dc:type
           rdf:resource="http://purl.org/dc/dcmitype/StillImage" /><dc:title></dc:title></cc:Work></rdf:RDF></metadata><defs
     id="defs433" /><sodipodi:namedview
     pagecolor="#ffffff"
     bordercolor="#666666"
     borderopacity="1"
     objecttolerance="10"
     gridtolerance="10"
     guidetolerance="10"
     inkscape:pageopacity="0"
     inkscape:pageshadow="2"
     inkscape:window-width="1855"
     inkscape:window-height="1056"
     id="namedview431"
     showgrid="false"
     fit-margin-top="0"
     fit-margin-left="0"
     fit-margin-right="0"
     fit-margin-bottom="0"
     inkscape:zoom="17.018519"
     inkscape:cx="18.249999"
     inkscape:cy="20.251"
     inkscape:window-x="1985"
     inkscape:window-y="24"
     inkscape:window-maximized="1"
     inkscape:current-layer="Layer_1" /><path
     d="m 18.258999,29.516 c 1.66,2.857 4.285,7.751 5.818,10.736 4.144,0 7.105,0 11.529,10e-4 -0.104,-5.858 -6.025,-14.557 -8.07,-19.532 1.975,-2.002 7.709,-1.227 8.713,-4.205 -0.775,-5.691 -7.844,-6.049 -12.887,-7.441 0.164,-5.775 -1.969,-8.73 -5.104,-8.825 l -0.018,0 c -3.137,0.095 -5.271,3.05 -5.104,8.825 -5.0429996,1.392 -12.1129996,1.75 -12.88599956,7.441 1.00199996,2.979 6.73899996,2.203 8.71199996,4.205 -2.044,4.976 -7.96599996,13.674 -8.06899996,19.532 4.42299996,-10e-4 7.38399996,-10e-4 11.52599956,-10e-4 1.533,-2.985 4.16,-7.879 5.822,-10.736 l 0.018,0 z"
     id="path5"
     style="fill:#0000ff;stroke:#0000ff;stroke-width:0.5;stroke-linecap:round;stroke-linejoin:round"
     inkscape:connector-curvature="0" /><g
     id="g409"
     transform="translate(-8.7500006,-6.748)" /></svg>