<?xml version="1.0" encoding="UTF-8" standalone="no"?>
<!-- Generator: Adobe Illustrator 15.0.0, SVG Export Plug-In . SVG Version: 6.00 Build 0)  -->

<svg
   xmlns:i="http://ns.adobe.com/AdobeIllustrator/10.0/"
   xmlns:dc="http://purl.org/dc/elements/1.1/"
   xmlns:cc="http://creativecommons.org/ns#"
   xmlns:rdf="http://www.w3.org/1999/02/22-rdf-syntax-ns#"
   xmlns:svg="http://www.w3.org/2000/svg"
   xmlns="http://www.w3.org/2000/svg"
   xmlns:xlink="http://www.w3.org/1999/xlink"
   xmlns:sodipodi="http://sodipodi.sourceforge.net/DTD/sodipodi-0.dtd"
   xmlns:inkscape="http://www.inkscape.org/namespaces/inkscape"
   version="1.1"
   x="0px"
   y="0px"
   width="90px"
   height="234px"
   viewBox="0 0 90 234"
   enable-background="new 0 0 90 234"
   xml:space="preserve"
   id="svg2"
   inkscape:version="0.91 r13725"
   sodipodi:docname="france.svg"
   inkscape:export-filename="/home/david/Sync/empire/chit/nation/france.png"
   inkscape:export-xdpi="375"
   inkscape:export-ydpi="375"><metadata
     id="metadata132"><rdf:RDF><cc:Work
         rdf:about=""><dc:format>image/svg+xml</dc:format><dc:type
           rdf:resource="http://purl.org/dc/dcmitype/StillImage" /><dc:title /></cc:Work></rdf:RDF></metadata><defs
     id="defs130"><inkscape:perspective
       id="perspective15658"
       inkscape:persp3d-origin="399.99994 : 466.66687 : 1"
       inkscape:vp_z="799.99988 : 700.00031 : 1"
       inkscape:vp_y="0 : 1000 : 0"
       inkscape:vp_x="0 : 700.00031 : 1"
       sodipodi:type="inkscape:persp3d" /><inkscape:perspective
       id="perspective13709"
       inkscape:persp3d-origin="0.5 : 0.33333333 : 1"
       inkscape:vp_z="1 : 0.5 : 1"
       inkscape:vp_y="0 : 1000 : 0"
       inkscape:vp_x="0 : 0.5 : 1"
       sodipodi:type="inkscape:persp3d" /><inkscape:perspective
       id="perspective11584"
       inkscape:persp3d-origin="0.5 : 0.33333333 : 1"
       inkscape:vp_z="1 : 0.5 : 1"
       inkscape:vp_y="0 : 1000 : 0"
       inkscape:vp_x="0 : 0.5 : 1"
       sodipodi:type="inkscape:persp3d" /><inkscape:perspective
       id="perspective6765"
       inkscape:persp3d-origin="0.5 : 0.33333333 : 1"
       inkscape:vp_z="1 : 0.5 : 1"
       inkscape:vp_y="0 : 1000 : 0"
       inkscape:vp_x="0 : 0.5 : 1"
       sodipodi:type="inkscape:persp3d" /><inkscape:perspective
       id="perspective6698"
       inkscape:persp3d-origin="0.5 : 0.33333333 : 1"
       inkscape:vp_z="1 : 0.5 : 1"
       inkscape:vp_y="0 : 1000 : 0"
       inkscape:vp_x="0 : 0.5 : 1"
       sodipodi:type="inkscape:persp3d" /><inkscape:perspective
       id="perspective6644"
       inkscape:persp3d-origin="0.5 : 0.33333333 : 1"
       inkscape:vp_z="1 : 0.5 : 1"
       inkscape:vp_y="0 : 1000 : 0"
       inkscape:vp_x="0 : 0.5 : 1"
       sodipodi:type="inkscape:persp3d" /><inkscape:perspective
       id="perspective6511"
       inkscape:persp3d-origin="0.5 : 0.33333333 : 1"
       inkscape:vp_z="1 : 0.5 : 1"
       inkscape:vp_y="0 : 1000 : 0"
       inkscape:vp_x="0 : 0.5 : 1"
       sodipodi:type="inkscape:persp3d" /><inkscape:perspective
       id="perspective6348"
       inkscape:persp3d-origin="0.5 : 0.33333333 : 1"
       inkscape:vp_z="1 : 0.5 : 1"
       inkscape:vp_y="0 : 1000 : 0"
       inkscape:vp_x="0 : 0.5 : 1"
       sodipodi:type="inkscape:persp3d" /><inkscape:perspective
       id="perspective4945"
       inkscape:persp3d-origin="0.5 : 0.33333333 : 1"
       inkscape:vp_z="1 : 0.5 : 1"
       inkscape:vp_y="0 : 1000 : 0"
       inkscape:vp_x="0 : 0.5 : 1"
       sodipodi:type="inkscape:persp3d" /><linearGradient
       id="linearGradient4760"><stop
         style="stop-color:#ef1579;stop-opacity:1;"
         offset="0"
         id="stop4762" /><stop
         style="stop-color:#cd186b;stop-opacity:0;"
         offset="1"
         id="stop4764" /></linearGradient><radialGradient
       inkscape:collect="always"
       xlink:href="#linearGradient4760"
       id="radialGradient4751"
       cx="365.81931"
       cy="73.521523"
       fx="365.81931"
       fy="73.521523"
       r="280.65198"
       gradientTransform="matrix(-0.09910422,-0.26072876,0.76493307,-0.29075449,345.83449,190.27785)"
       gradientUnits="userSpaceOnUse" /><linearGradient
       id="linearGradient3544-7"><stop
         style="stop-color:#ffd00e;stop-opacity:1;"
         offset="0"
         id="stop3546-1" /><stop
         id="stop3552-0"
         offset="0.03094191"
         style="stop-color:#fff9d8;stop-opacity:1;" /><stop
         style="stop-color:#ffeb9c;stop-opacity:1;"
         offset="0.0832561"
         id="stop3554-7" /><stop
         id="stop3556-3"
         offset="0.0832561"
         style="stop-color:#fae077;stop-opacity:1;" /><stop
         style="stop-color:#fee78d;stop-opacity:1;"
         offset="0.22552896"
         id="stop3574-4" /><stop
         id="stop3578-9"
         offset="0.22552896"
         style="stop-color:#ffedab;stop-opacity:1;" /><stop
         style="stop-color:#ffd333;stop-opacity:1;"
         offset="0.48141539"
         id="stop3564-6" /><stop
         id="stop3576-5"
         offset="0.48141539"
         style="stop-color:#ffe793;stop-opacity:1;" /><stop
         id="stop3572-1"
         offset="0.48141539"
         style="stop-color:#fee485;stop-opacity:1;" /><stop
         id="stop3566-0"
         offset="0.48141539"
         style="stop-color:#fce285;stop-opacity:1;" /><stop
         style="stop-color:#f5d563;stop-opacity:1;"
         offset="0.52907544"
         id="stop3570-9" /><stop
         style="stop-color:#eab708;stop-opacity:1;"
         offset="0.5767355"
         id="stop3558-9" /><stop
         id="stop3568-6"
         offset="0.68770266"
         style="stop-color:#fac717;stop-opacity:1;" /><stop
         id="stop3562-8"
         offset="0.87038326"
         style="stop-color:#eabc06;stop-opacity:1;" /><stop
         id="stop3560-3"
         offset="0.87038326"
         style="stop-color:#f9c804;stop-opacity:1;" /><stop
         style="stop-color:#f2c200;stop-opacity:1;"
         offset="1"
         id="stop3548-4" /></linearGradient><linearGradient
       id="linearGradient4713"><stop
         style="stop-color:#635200;stop-opacity:1;"
         offset="0"
         id="stop4715" /><stop
         style="stop-color:#dbb600;stop-opacity:1;"
         offset="1"
         id="stop4717" /></linearGradient><linearGradient
       inkscape:collect="always"
       xlink:href="#linearGradient4713"
       id="linearGradient4711"
       x1="359.11053"
       y1="237.93977"
       x2="353.67139"
       y2="243.5986"
       gradientUnits="userSpaceOnUse"
       gradientTransform="matrix(1.8158952,0,0,1.8158952,-0.31342094,-220.48145)" /><linearGradient
       id="linearGradient4927-1"><stop
         style="stop-color:#ffffff;stop-opacity:1;"
         offset="0"
         id="stop4929-4" /><stop
         id="stop4931-3"
         offset="0.05739683"
         style="stop-color:#fff8d9;stop-opacity:1;" /><stop
         style="stop-color:#fff3c3;stop-opacity:1;"
         offset="0.1263136"
         id="stop4933-9" /><stop
         style="stop-color:#ffe99c;stop-opacity:1;"
         offset="0.16610701"
         id="stop4935-8" /><stop
         style="stop-color:#fee485;stop-opacity:1;"
         offset="0.24648458"
         id="stop4937-8" /><stop
         style="stop-color:#fce285;stop-opacity:1;"
         offset="0.31659418"
         id="stop4939-0" /><stop
         id="stop4941-8"
         offset="0.33012831"
         style="stop-color:#f5d563;stop-opacity:1;" /><stop
         style="stop-color:#fac60f;stop-opacity:1;"
         offset="0.46078458"
         id="stop4943-7" /><stop
         style="stop-color:#d0a705;stop-opacity:1;"
         offset="0.80867887"
         id="stop4945-7" /><stop
         style="stop-color:#fee583;stop-opacity:1;"
         offset="1"
         id="stop4947-8" /></linearGradient><linearGradient
       gradientUnits="userSpaceOnUse"
       y2="221.28864"
       x2="646.25653"
       y1="221.28864"
       x1="628.09442"
       gradientTransform="matrix(1.0252101,0,0,0.97540983,341.88931,183.93117)"
       id="linearGradient4640-0"><stop
         id="stop4642"
         offset="0"
         style="stop-color:#000000;stop-opacity:0;" /><stop
         id="stop4644"
         offset="1"
         style="stop-color:#000000;stop-opacity:1;" /></linearGradient><linearGradient
       id="linearGradient4633"><stop
         id="stop4635"
         offset="0"
         style="stop-color:#000000;stop-opacity:0;" /><stop
         id="stop4637"
         offset="1"
         style="stop-color:#000000;stop-opacity:1;" /></linearGradient><linearGradient
       id="linearGradient4567"><stop
         id="stop4569"
         offset="0"
         style="stop-color:#ffffff;stop-opacity:0;" /><stop
         style="stop-color:#ffffff;stop-opacity:0.49803922;"
         offset="0.17737789"
         id="stop4571" /><stop
         id="stop4573"
         offset="1"
         style="stop-color:#ffffff;stop-opacity:1;" /></linearGradient><linearGradient
       id="linearGradient5112-4"><stop
         id="stop5114-1"
         offset="0"
         style="stop-color:#ffffff;stop-opacity:1;" /><stop
         style="stop-color:#fff8d9;stop-opacity:1;"
         offset="0.05739683"
         id="stop5116-2" /><stop
         id="stop5118-0"
         offset="0.16890618"
         style="stop-color:#fff3c3;stop-opacity:1;" /><stop
         id="stop5120-0"
         offset="0.27802518"
         style="stop-color:#ffe99c;stop-opacity:1;" /><stop
         id="stop5122-1"
         offset="0.40972584"
         style="stop-color:#fee485;stop-opacity:1;" /><stop
         id="stop5124-4"
         offset="0.45850885"
         style="stop-color:#fce285;stop-opacity:1;" /><stop
         style="stop-color:#f5d563;stop-opacity:1;"
         offset="0.52907544"
         id="stop5126-6" /><stop
         id="stop5128-0"
         offset="0.68770266"
         style="stop-color:#fac60f;stop-opacity:1;" /><stop
         id="stop5130-7"
         offset="0.87038326"
         style="stop-color:#d0a705;stop-opacity:1;" /><stop
         id="stop5132-1"
         offset="1"
         style="stop-color:#fee583;stop-opacity:1;" /></linearGradient><linearGradient
       id="linearGradient5189-3"><stop
         style="stop-color:#ffffff;stop-opacity:1;"
         offset="0"
         id="stop5193-6" /><stop
         id="stop5195-1"
         offset="0.05739683"
         style="stop-color:#fff8d9;stop-opacity:1;" /><stop
         style="stop-color:#fff3c3;stop-opacity:1;"
         offset="0.16890618"
         id="stop5201-5" /><stop
         style="stop-color:#ffe99c;stop-opacity:1;"
         offset="0.27600592"
         id="stop5205-4" /><stop
         style="stop-color:#fee485;stop-opacity:1;"
         offset="0.40972584"
         id="stop5207-2" /><stop
         style="stop-color:#fce285;stop-opacity:1;"
         offset="0.45850885"
         id="stop5209-0" /><stop
         id="stop5211-9"
         offset="0.52907544"
         style="stop-color:#f5d563;stop-opacity:1;" /><stop
         style="stop-color:#fac60f;stop-opacity:1;"
         offset="0.68770266"
         id="stop5215-7" /><stop
         style="stop-color:#d0a705;stop-opacity:1;"
         offset="0.87038326"
         id="stop5217-3" /><stop
         style="stop-color:#fee583;stop-opacity:1;"
         offset="1"
         id="stop5219-7" /></linearGradient><linearGradient
       id="linearGradient4320"><stop
         id="stop4322"
         offset="0"
         style="stop-color:#ffffff;stop-opacity:1;" /><stop
         style="stop-color:#f2f2f2;stop-opacity:1;"
         offset="0.29540521"
         id="stop4324" /><stop
         id="stop4326"
         offset="0.52522838"
         style="stop-color:#c6c6c6;stop-opacity:1;" /><stop
         id="stop4328"
         offset="0.7272951"
         style="stop-color:#7e7e7e;stop-opacity:1;" /><stop
         id="stop4330"
         offset="0.79767972"
         style="stop-color:#d4d4d4;stop-opacity:1;" /><stop
         style="stop-color:#e9e9e9;stop-opacity:1;"
         offset="0.86146581"
         id="stop4332" /><stop
         id="stop4334"
         offset="1"
         style="stop-color:#ffffff;stop-opacity:1;" /></linearGradient><inkscape:perspective
       id="perspective4185"
       inkscape:persp3d-origin="0.5 : 0.33333333 : 1"
       inkscape:vp_z="1 : 0.5 : 1"
       inkscape:vp_y="0 : 1000 : 0"
       inkscape:vp_x="0 : 0.5 : 1"
       sodipodi:type="inkscape:persp3d" /><radialGradient
       inkscape:collect="always"
       xlink:href="#linearGradient4760"
       id="radialGradient3992"
       cx="365.81931"
       cy="73.521523"
       fx="365.81931"
       fy="73.521523"
       r="280.65198"
       gradientTransform="matrix(-0.09910422,-0.26072876,0.76493307,-0.29075449,345.83449,190.27785)"
       gradientUnits="userSpaceOnUse" /><inkscape:perspective
       id="perspective3419"
       inkscape:persp3d-origin="0.5 : 0.33333333 : 1"
       inkscape:vp_z="1 : 0.5 : 1"
       inkscape:vp_y="0 : 1000 : 0"
       inkscape:vp_x="0 : 0.5 : 1"
       sodipodi:type="inkscape:persp3d" /><inkscape:perspective
       id="perspective6390"
       inkscape:persp3d-origin="0.5 : 0.33333333 : 1"
       inkscape:vp_z="1 : 0.5 : 1"
       inkscape:vp_y="0 : 1000 : 0"
       inkscape:vp_x="0 : 0.5 : 1"
       sodipodi:type="inkscape:persp3d" /><inkscape:perspective
       id="perspective5898"
       inkscape:persp3d-origin="0.5 : 0.33333333 : 1"
       inkscape:vp_z="1 : 0.5 : 1"
       inkscape:vp_y="0 : 1000 : 0"
       inkscape:vp_x="0 : 0.5 : 1"
       sodipodi:type="inkscape:persp3d" /><linearGradient
       id="linearGradient5071"><stop
         style="stop-color:#e32d07;stop-opacity:1;"
         offset="0"
         id="stop5073" /><stop
         style="stop-color:#ffffff;stop-opacity:1;"
         offset="1"
         id="stop5075" /></linearGradient><linearGradient
       id="linearGradient5079"><stop
         style="stop-color:#e32d07;stop-opacity:1;"
         offset="0"
         id="stop5081" /><stop
         style="stop-color:#000000;stop-opacity:1;"
         offset="1"
         id="stop5083" /></linearGradient><inkscape:perspective
       id="perspective3391"
       inkscape:persp3d-origin="372.04724 : 350.78739 : 1"
       inkscape:vp_z="744.09448 : 526.18109 : 1"
       inkscape:vp_y="0 : 1000 : 0"
       inkscape:vp_x="0 : 526.18109 : 1"
       sodipodi:type="inkscape:persp3d" /><inkscape:perspective
       id="perspective5272"
       inkscape:persp3d-origin="372.04724 : 350.78739 : 1"
       inkscape:vp_z="744.09448 : 526.18109 : 1"
       inkscape:vp_y="0 : 1000 : 0"
       inkscape:vp_x="0 : 526.18109 : 1"
       sodipodi:type="inkscape:persp3d" /><inkscape:perspective
       id="perspective10253"
       inkscape:persp3d-origin="372.04724 : 350.78739 : 1"
       inkscape:vp_z="744.09448 : 526.18109 : 1"
       inkscape:vp_y="0 : 1000 : 0"
       inkscape:vp_x="0 : 526.18109 : 1"
       sodipodi:type="inkscape:persp3d" /><inkscape:perspective
       id="perspective4823"
       inkscape:persp3d-origin="201.425 : 188.71334 : 1"
       inkscape:vp_z="402.85001 : 283.07001 : 1"
       inkscape:vp_y="0 : 1000 : 0"
       inkscape:vp_x="0 : 283.07001 : 1"
       sodipodi:type="inkscape:persp3d" /><inkscape:perspective
       sodipodi:type="inkscape:persp3d"
       inkscape:vp_x="0 : 526.18109 : 1"
       inkscape:vp_y="0 : 1000 : 0"
       inkscape:vp_z="744.09448 : 526.18109 : 1"
       inkscape:persp3d-origin="372.04724 : 350.78739 : 1"
       id="perspective5434" /><inkscape:perspective
       id="perspective7338"
       inkscape:persp3d-origin="177.72542 : 128.41912 : 1"
       inkscape:vp_z="355.45084 : 192.62868 : 1"
       inkscape:vp_y="0 : 1000 : 0"
       inkscape:vp_x="0 : 192.62868 : 1"
       sodipodi:type="inkscape:persp3d" /><inkscape:perspective
       id="perspective38760"
       inkscape:persp3d-origin="50 : 33.333333 : 1"
       inkscape:vp_z="100 : 50 : 1"
       inkscape:vp_y="0 : 1000 : 0"
       inkscape:vp_x="0 : 50 : 1"
       sodipodi:type="inkscape:persp3d" /><inkscape:perspective
       id="perspective36685"
       inkscape:persp3d-origin="61 : 48 : 1"
       inkscape:vp_z="122 : 72 : 1"
       inkscape:vp_y="0 : 1000 : 0"
       inkscape:vp_x="0 : 72 : 1"
       sodipodi:type="inkscape:persp3d" /><pattern
       xlink:href="#pattern4639"
       id="pattern4653"
       patternTransform="matrix(2.6518042e-2,0,0,2.5611169e-2,160.16676,36.825619)" /><pattern
       xlink:href="#pattern4639"
       id="pattern4645"
       patternTransform="matrix(2.5611443e-2,0,0,2.5611169e-2,79.83016,54.425619)" /><pattern
       xlink:href="#Ermine"
       id="pattern4639"
       patternTransform="matrix(2.5611443e-2,0,0,2.5611169e-2,-60.169839,16.925619)" /><pattern
       xlink:href="#Ermine"
       id="pattern4637"
       patternTransform="matrix(-2.5611443e-2,0,0,2.5611169e-2,-219.27645,16.925619)" /><pattern
       patternUnits="userSpaceOnUse"
       width="783.093"
       height="797.156"
       patternTransform="matrix(2.5611443e-2,0,0,2.5611169e-2,-27.723553,16.925619)"
       id="Ermine"><g
         id="g2575"><path
           style="fill:black"
           d="M 566.875,361.31 C 529.023,361.31 498.281,392.05 498.281,429.90 C 498.281,467.75 529.023,498.46 566.875,498.46 C 604.726,498.46 635.437,467.75 635.437,429.90 C 635.437,392.05 604.726,361.31 566.875,361.31 z "
           id="path3042" /><path
           style="fill:black"
           d="M 177.156,0.34 C 139.304,0.34 108.593,31.05 108.593,68.90 C 108.593,106.75 139.304,137.5 177.156,137.5 C 215.007,137.5 245.718,106.75 245.718,68.90 C 245.718,31.05 215.007,0.34 177.156,0.34 z "
           id="path3052" /><path
           style="opacity:0;fill:black"
           d="M 783.093,117.93 C 780.736,124.86 779.437,132.27 779.437,140 C 779.437,147.71 780.739,155.13 783.093,162.06 L 783.093,117.93 z "
           id="path3050" /><path
           style="fill:black"
           d="M 285.718,140.78 C 247.867,140.78 217.156,171.49 217.156,209.34 C 217.156,247.19 247.867,277.90 285.718,277.90 C 323.570,277.90 354.281,247.19 354.281,209.34 C 354.281,171.49 323.570,140.78 285.718,140.78 z "
           id="path3048" /><path
           style="fill:black"
           d="M 161.375,165.06 C 144.552,433.12 73.284,537.85 28.593,722.31 L 126.687,653.71 L 180,722. L 233.312,653.65 L 325.687,722.21 C 273.529,536.18 207.547,433.42 192.75,165.06 L 161.375,165.06 z "
           id="path3044" /><path
           style="fill:black"
           d="M 551.093,526.03 C 543.970,639.54 527.089,723.7 506.593,797.15 L 624,797.15 C 604.261,723.91 588.746,639.88 582.468,526.03 L 551.093,526.03 z "
           id="path3036" /><path
           style="fill:black"
           d="M 675.437,501. C 637.586,501. 606.875,532.46 606.875,570.31 C 606.875,608.16 637.586,638.90 675.437,638.90 C 713.288,638.90 744.000,608.16 744,570.31 C 744,532.46 713.288,501. 675.437,501. z "
           id="path3040" /><path
           style="fill:black"
           d="M 68.593,143.6 C 30.742,143.6 0,174.36 0,212.21 C 0,250.07 30.742,280.78 68.593,280.78 C 106.445,280.78 137.156,250.07 137.156,212.21 C 137.156,174.36 106.445,143.6 68.593,143.6 z "
           id="path3046" /><path
           style="fill:black"
           d="M 507.406,0 C 479.357,101.33 444.335,181.71 418.312,289.1 L 516.406,220.53 L 569.718,289.09 L 623.031,220.5 L 715.406,289.03 C 685.074,180.8 650.084,100.80 623.187,0 L 507.406,0 z "
           id="path3054" /><path
           style="fill:black"
           d="M 458.281,504.6 C 420.429,504.6 389.718,535.33 389.718,573.18 C 389.718,611.03 420.429,641. 458.281,641. C 496.132,641. 526.875,611.03 526.875,573.18 C 526.875,535.33 496.132,504.62 458.281,504.6 z "
           id="path3038" /></g></pattern><inkscape:perspective
       id="perspective8134"
       inkscape:persp3d-origin="300 : 220 : 1"
       inkscape:vp_z="600 : 330 : 1"
       inkscape:vp_y="0 : 1000 : 0"
       inkscape:vp_x="0 : 330 : 1"
       sodipodi:type="inkscape:persp3d" /><linearGradient
       id="linearGradient2893"><stop
         offset="0"
         style="stop-color:#ffffff;stop-opacity:0.3137255"
         id="stop2895" /><stop
         offset="0.19"
         style="stop-color:#ffffff;stop-opacity:0.25098041"
         id="stop2897" /><stop
         offset="0.60000002"
         style="stop-color:#6b6b6b;stop-opacity:0.1254902"
         id="stop2901" /><stop
         offset="1"
         style="stop-color:#000000;stop-opacity:0.1254902"
         id="stop2899" /></linearGradient><radialGradient
       gradientTransform="matrix(1.360018,0,0,1.355087,-79.5275,-87.64524)"
       gradientUnits="userSpaceOnUse"
       xlink:href="#linearGradient2893"
       id="radialGradient2883"
       fy="218.01039"
       fx="203.19754"
       r="300"
       cy="218.01039"
       cx="203.19754" /><linearGradient
       id="linearGradient2955"><stop
         offset="0"
         style="stop-color:#ffffff;stop-opacity:0"
         id="stop2965" /><stop
         offset="1"
         style="stop-color:#000000;stop-opacity:0.64583331"
         id="stop2959" /></linearGradient><radialGradient
       gradientTransform="matrix(-4.167939e-4,2.182867,-1.884232,-3.599562e-4,615.5972,-289.1214)"
       gradientUnits="userSpaceOnUse"
       xlink:href="#linearGradient2955"
       id="radialGradient2961"
       fy="218.90099"
       fx="225.52438"
       r="300"
       cy="218.90099"
       cx="225.52438" /><polygon
       id="star"
       transform="scale(53,53)"
       points="-0.58778525,0.80901699 0,-1 0,-1 0.58778525,0.80901699 -0.95105652,-0.30901699 0.95105652,-0.30901699 " /><clipPath
       id="clip"><path
         inkscape:connector-curvature="0"
         id="path10"
         d="m 0,-200 0,800 300,0 0,-800 -300,0 z" /></clipPath><radialGradient
       gradientTransform="matrix(-4.167939e-4,2.182867,-1.884232,-3.599562e-4,1395.597,-309.1214)"
       gradientUnits="userSpaceOnUse"
       xlink:href="#linearGradient2955"
       id="radialGradient1911"
       fy="218.90099"
       fx="225.52438"
       r="300"
       cy="218.90099"
       cx="225.52438" /><radialGradient
       gradientTransform="matrix(0,2.342476,-2.291353,0,562.9126,1323.77)"
       gradientUnits="userSpaceOnUse"
       xlink:href="#linearGradient2955"
       id="radialGradient2928"
       fy="153.9283"
       fx="-483.50824"
       r="300.00003"
       cy="153.9283"
       cx="-483.50824" /><radialGradient
       gradientTransform="matrix(1.551284,0,0,1.350335,-227.8943,-51.2635)"
       gradientUnits="userSpaceOnUse"
       xlink:href="#linearGradient2893"
       id="radialGradient11919"
       fy="200.44757"
       fx="285.18573"
       r="300"
       cy="200.44757"
       cx="285.18573" /><inkscape:perspective
       inkscape:persp3d-origin="300 : 400 : 1"
       inkscape:vp_z="700 : 600 : 1"
       inkscape:vp_y="0 : 1000 : 0"
       inkscape:vp_x="-50 : 600 : 1"
       id="perspective616"
       sodipodi:type="inkscape:persp3d" /><linearGradient
       id="linearGradient5420"><stop
         id="stop5422"
         offset="0"
         style="stop-color:#ce2b37;stop-opacity:1;" /><stop
         style="stop-color:#8a0a11;stop-opacity:1;"
         offset="1"
         id="stop5428" /></linearGradient><inkscape:perspective
       id="perspective3431"
       inkscape:persp3d-origin="150.5 : 164.84 : 1"
       inkscape:vp_z="301 : 247.25999 : 1"
       inkscape:vp_y="0 : 1000 : 0"
       inkscape:vp_x="0 : 247.25999 : 1"
       sodipodi:type="inkscape:persp3d" /><inkscape:perspective
       id="perspective2863"
       inkscape:persp3d-origin="212.1875 : 268.20833 : 1"
       inkscape:vp_z="424.375 : 402.3125 : 1"
       inkscape:vp_y="0 : 1000 : 0"
       inkscape:vp_x="0 : 402.3125 : 1"
       sodipodi:type="inkscape:persp3d" /><inkscape:perspective
       sodipodi:type="inkscape:persp3d"
       inkscape:vp_x="0 : 526.18109 : 1"
       inkscape:vp_y="0 : 1000 : 0"
       inkscape:vp_z="744.09448 : 526.18109 : 1"
       inkscape:persp3d-origin="372.04724 : 350.78739 : 1"
       id="perspective2447" /><linearGradient
       id="linearGradient6135"><stop
         id="stop6137"
         offset="0"
         style="stop-color:#e64725;stop-opacity:1" /><stop
         id="stop6139"
         offset="1"
         style="stop-color:#ffffff;stop-opacity:1;" /></linearGradient><inkscape:perspective
       sodipodi:type="inkscape:persp3d"
       inkscape:vp_x="0 : 0.5 : 1"
       inkscape:vp_y="0 : 1000 : 0"
       inkscape:vp_z="1 : 0.5 : 1"
       inkscape:persp3d-origin="0.5 : 0.33333333 : 1"
       id="perspective13709-8" /><inkscape:perspective
       sodipodi:type="inkscape:persp3d"
       inkscape:vp_x="0 : 0.5 : 1"
       inkscape:vp_y="0 : 1000 : 0"
       inkscape:vp_z="1 : 0.5 : 1"
       inkscape:persp3d-origin="0.5 : 0.33333333 : 1"
       id="perspective29060" /><metadata
       id="CorelCorpID_0Corel-Layer" /><inkscape:perspective
       id="perspective505"
       inkscape:persp3d-origin="318.89749 : 141.73233 : 1"
       inkscape:vp_z="637.79498 : 212.5985 : 1"
       inkscape:vp_y="0 : 1000 : 0"
       inkscape:vp_x="0 : 212.5985 : 1"
       sodipodi:type="inkscape:persp3d" /><foreignObject
       requiredExtensions="http://ns.adobe.com/AdobeIllustrator/10.0/"
       x="0"
       y="0"
       width="1"
       height="1"
       id="foreignObject5"><i:pgfRef
         xlink:href="#adobe_illustrator_pgf" /></foreignObject><inkscape:perspective
       id="perspective3407"
       inkscape:persp3d-origin="372.04724 : 350.78739 : 1"
       inkscape:vp_z="744.09448 : 526.18109 : 1"
       inkscape:vp_y="0 : 1000 : 0"
       inkscape:vp_x="0 : 526.18109 : 1"
       sodipodi:type="inkscape:persp3d" /><inkscape:perspective
       id="perspective4331"
       inkscape:persp3d-origin="372.04724 : 350.78739 : 1"
       inkscape:vp_z="744.09448 : 526.18109 : 1"
       inkscape:vp_y="0 : 1000 : 0"
       inkscape:vp_x="0 : 526.18109 : 1"
       sodipodi:type="inkscape:persp3d" /><inkscape:perspective
       id="perspective3324"
       inkscape:persp3d-origin="372.04724 : 350.78739 : 1"
       inkscape:vp_z="744.09448 : 526.18109 : 1"
       inkscape:vp_y="0 : 1000 : 0"
       inkscape:vp_x="0 : 526.18109 : 1"
       sodipodi:type="inkscape:persp3d" /><inkscape:perspective
       sodipodi:type="inkscape:persp3d"
       inkscape:vp_x="0 : 526.18109 : 1"
       inkscape:vp_y="0 : 1000 : 0"
       inkscape:vp_z="744.09448 : 526.18109 : 1"
       inkscape:persp3d-origin="372.04724 : 350.78739 : 1"
       id="perspective10" /><inkscape:perspective
       sodipodi:type="inkscape:persp3d"
       inkscape:vp_x="0 : 258.0809 : 1"
       inkscape:vp_y="0 : 1000 : 0"
       inkscape:vp_z="800 : 258.0809 : 1"
       inkscape:persp3d-origin="400 : 172.05393 : 1"
       id="perspective16918" /><inkscape:perspective
       id="perspective2618"
       inkscape:persp3d-origin="372.04724 : 350.78739 : 1"
       inkscape:vp_z="744.09448 : 526.18109 : 1"
       inkscape:vp_y="0 : 1000 : 0"
       inkscape:vp_x="0 : 526.18109 : 1"
       sodipodi:type="inkscape:persp3d" /><inkscape:perspective
       sodipodi:type="inkscape:persp3d"
       inkscape:vp_x="0 : 526.18109 : 1"
       inkscape:vp_y="0 : 1000 : 0"
       inkscape:vp_z="744.09448 : 526.18109 : 1"
       inkscape:persp3d-origin="372.04724 : 350.78739 : 1"
       id="perspective9853" /></defs><sodipodi:namedview
     pagecolor="#b06675"
     bordercolor="#666666"
     borderopacity="1"
     objecttolerance="10"
     gridtolerance="10"
     guidetolerance="10"
     inkscape:pageopacity="1"
     inkscape:pageshadow="2"
     inkscape:window-width="960"
     inkscape:window-height="1028"
     id="namedview128"
     showgrid="false"
     showguides="true"
     inkscape:guide-bbox="true"
     inkscape:snap-bbox="true"
     inkscape:snap-bbox-midpoints="false"
     inkscape:bbox-nodes="true"
     inkscape:snap-page="true"
     inkscape:object-paths="false"
     inkscape:object-nodes="false"
     inkscape:snap-smooth-nodes="false"
     inkscape:zoom="3.8076923"
     inkscape:cx="45"
     inkscape:cy="117"
     inkscape:window-x="2880"
     inkscape:window-y="24"
     inkscape:window-maximized="0"
     inkscape:current-layer="svg2"><sodipodi:guide
       position="0,51.064748"
       orientation="1,0"
       id="guide4260" /><sodipodi:guide
       position="90,51.064748"
       orientation="1,0"
       id="guide4262" /><sodipodi:guide
       position="46.201439,234"
       orientation="0,1"
       id="guide4264" /><sodipodi:guide
       position="17.519,216.49803"
       orientation="0,1"
       id="guide4266" /><sodipodi:guide
       position="17.519,71.497"
       orientation="0,1"
       id="guide4268" /><sodipodi:guide
       position="0,0"
       orientation="0,1"
       id="guide4270" /><sodipodi:guide
       position="17.519,71.497"
       orientation="1,0"
       id="guide4272" /><sodipodi:guide
       position="72.557,71.497"
       orientation="1,0"
       id="guide4274" /><sodipodi:guide
       position="33.717,89.998"
       orientation="0,1"
       id="guide4276" /><sodipodi:guide
       position="18.019,188.998"
       orientation="0,1"
       id="guide4284" /><sodipodi:guide
       position="49.93279,156.41026"
       orientation="0,1"
       id="guide4549" /></sodipodi:namedview><rect
     y="0"
     x="0"
     height="234"
     width="90"
     id="rect4764"
     style="fill:#ffffff;fill-opacity:1;stroke:none;stroke-width:0.60000002;stroke-miterlimit:4;stroke-dasharray:none;stroke-opacity:1" /><g
     transform="matrix(0.56777982,0,0,0.56777982,-295.66789,-152.229)"
     style="display:inline;fill:#ffd700;fill-opacity:1"
     inkscape:label="Layer"
     id="layer2"><g
       id="g23064"
       transform="translate(0,13.696193)"
       style="fill:#ffd700;fill-opacity:1"><g
         transform="matrix(0.8732691,0,0,0.8732691,28.957416,137.17726)"
         id="g42469"
         style="fill:#ffd700;stroke:none;fill-opacity:1"><g
           id="g42471"
           style="fill:#ffd700;stroke:none;fill-opacity:1"><path
             style="fill:#ffd700;fill-opacity:1;stroke:none"
             d="m 643.76394,389.08739 c -1.29468,-7.11568 4.67341,-8.88102 6.55436,-23.59441 1.3627,-10.65947 -2.57649,-27.12145 -7.61242,-35.04123 -5.03593,-7.91979 -10.60278,-11.20968 -10.79793,-19.26184 -0.1071,-4.41888 1.91465,-8.50949 7.70091,-11.25705 4.39972,-2.08917 11.39383,-4.94682 14.30479,-9.19326 2.91095,4.24644 9.90506,7.10409 14.30478,9.19326 5.78626,2.74756 7.80801,6.83817 7.70092,11.25705 -0.19516,8.05216 -5.762,11.34205 -10.79793,19.26184 -5.03593,7.91978 -8.97512,24.38176 -7.61242,35.04123 1.88094,14.71339 7.84903,16.47873 6.55435,23.59441 -1.06479,5.85216 -6.22914,7.20652 -10.1497,12.65518 -3.92057,-5.44866 -9.08492,-6.80302 -10.14971,-12.65518 z"
             id="path42473"
             inkscape:connector-curvature="0"
             sodipodi:nodetypes="ssssscssssscs" /><path
             style="fill:#ffd700;fill-opacity:1;stroke:none"
             d="m 636.6875,320 c -2.93947,-1.59246 4.28736,5.38586 6.88752,9.47501 5.34432,8.40477 9.0627,25.01529 7.63126,36.21249 -0.96423,7.54253 -2.57342,11.61183 -4.14871,14.79772 -1.57529,3.18589 -2.54139,4.91524 -1.96875,8.0625 0.46137,2.5357 1.82233,4.27125 3.66118,5.95228 0,0 -1.85994,-3.31125 -1.76035,-6.0941 0.15079,-4.2134 3.21716,-7.87481 4.55591,-14.37269 1.07125,-5.19949 1.98497,-11.9838 1.98497,-11.9838 C 653.2831,343.46387 650.44972,327.45571 636.6875,320 Z m 18.53982,42.65031 c 0.16925,2.50799 -0.39793,4.80443 -0.13873,7.37988 0.67766,6.73323 4.05325,11.73001 4.1022,17.36528 0.0447,5.14595 -2.20613,6.21935 -4.33038,11.34917 1.78841,-2.08535 2.69726,-2.86897 4.20209,-4.24464 1.83886,-1.68103 3.10113,-3.12055 3.5625,-5.65625 0.57264,-3.14726 -0.39345,-4.87661 -1.96875,-8.0625 -1.5753,-3.18589 -3.26704,-7.73246 -4.23127,-15.27499 -1.4318,-11.19998 2.13842,-27.44755 7.48127,-35.85001 2.59942,-4.088 5.29072,-6.95356 7.25,-9.65625 1.95928,-2.70269 3.19168,-5.14836 3.28125,-8.84375 0.0958,-3.95465 -1.44598,-7.34316 -6.84375,-9.90625 3.46608,3.88052 5.37751,9.05226 3.9011,13.20757 -1.93773,5.4537 -7.87049,10.16661 -10.33069,15.40541 -3.01454,6.41923 -4.34996,13.10968 -5.4372,20.11766 -0.6582,4.24251 -0.49964,12.66967 -0.49964,12.66967 z"
             id="path42475"
             inkscape:connector-curvature="0"
             sodipodi:nodetypes="csssscsscccsscssssccccsssc" /><path
             style="fill:#ffd700;stroke:none;fill-opacity:1"
             d="m 653.91365,291.04535 0,110.12363"
             id="path42477"
             inkscape:connector-curvature="0"
             sodipodi:nodetypes="cc" /><path
             inkscape:connector-curvature="0"
             style="fill:#ffd700;fill-opacity:1;stroke:none"
             d="m 652.28125,294.90625 c -2.66084,5.43199 -12.34163,7.13192 -12,13.3125 0.5472,9.89954 7.30076,8.78395 11.5625,16.0625 l 0.4375,-29.375 z m 3.0625,1.78125 0.5625,27.375 c 2.27504,-7.27855 7.79655,-3.44421 8.34375,-13.34375 0.34163,-6.18058 -6.24541,-8.54981 -8.90625,-14.03125 z m -2.96875,84.15625 c 0,0 -3.61531,6.38034 -3.28125,9.8125 0.3746,3.84873 3.5625,6.15625 3.5625,6.15625 L 652.375,380.84375 Z"
             id="path42479" /></g><g
           transform="matrix(-1,0,0,1,1307.8273,0)"
           id="g42481"
           style="fill:#ffd700;stroke:none;fill-opacity:1"><g
             id="g42483"
             style="fill:#ffd700;stroke:none;fill-opacity:1"><path
               style="fill:#ffd700;fill-opacity:1;stroke:none"
               d="m 626.17665,360.00856 c 0,0 -17.22854,-0.84744 -18.194,-16.67783 -0.53536,-8.77803 7.98172,-17.47832 16.98106,-16.67782 17.03742,1.5155 24.09546,20.25991 22.74249,34.87182 -0.80459,8.6895 -4.62734,24.11188 -14.55519,24.56189 -6.57262,0.29793 -10.21981,-4.61881 -10.0067,-11.82609 1.24126,1.24126 3.82849,5.57642 9.62364,4.62663 3.54387,-0.58082 8.08424,-2.63958 9.48006,-15.54303 0.92707,-8.57017 -2.23825,-18.90823 -9.097,-18.49723 -11.32391,0.67857 -6.97436,15.16166 -6.97436,15.16166 z"
               id="path42485"
               inkscape:connector-curvature="0"
               sodipodi:nodetypes="csssscsssc" /><path
               sodipodi:nodetypes="csssssssssscssscsc"
               inkscape:connector-curvature="0"
               id="path42487"
               d="m 624.3125,358.28125 c -0.28483,-1.48934 -0.51269,-3.44887 -0.3125,-5.71875 0.17929,-2.03288 0.71824,-4.20457 2.15625,-5.96875 1.43801,-1.76418 3.76386,-2.9992 6.90625,-3.1875 2.08203,-0.12476 3.98785,0.60154 5.46875,1.84375 1.4809,1.24221 2.57614,2.95282 3.40625,4.90625 1.66021,3.90687 2.23908,8.82252 1.75,13.34375 -0.1186,1.09634 0.71382,1.53446 0.55169,2.59681 -0.8153,5.34226 -3.13401,10.70567 -4.80169,12.79991 -1.99931,2.5107 -4.49535,3.36919 -6.4375,3.6875 -3.27716,0.53711 -6.24425,-2.08527 -7.59375,-4.02172 -0.14223,-0.20409 -0.19081,-0.22179 -0.375,-0.375 0.35839,1.53939 0.88141,2.88349 1.6875,3.875 1.42436,1.752 3.46081,2.72585 6.375,2.59375 4.22721,-0.19161 7.27686,-3.57857 9.46875,-8.34375 2.19189,-4.76518 3.32861,-10.6928 3.71875,-14.90625 -0.47113,-21.83522 -16.55585,-28.7929 -24.2115,-20.6716 -7.28066,7.72349 -2.81288,17.51576 2.24275,17.5466 z"
               style="fill:#ffd700;fill-opacity:1;stroke:none" /></g><path
             sodipodi:nodetypes="cscsc"
             inkscape:connector-curvature="0"
             id="path42489"
             d="m 638.70623,336.40503 c -6.84795,-9.67476 -18.63555,-8.62652 -23.51025,-4.00497 -2.8754,2.72606 -6.78775,8.1438 -2.93931,16.88176 -0.0255,-7.9677 1.94898,-11.15885 5.06731,-13.44407 4.61317,-3.3807 12.67707,-3.92109 21.38225,0.56728 z"
             style="fill:#ffd700;fill-opacity:1;stroke:none" /></g><g
           id="g42491"
           style="fill:#ffd700;stroke:none;fill-opacity:1"><g
             id="g42493"
             style="fill:#ffd700;stroke:none;fill-opacity:1"><path
               sodipodi:nodetypes="csssscsssc"
               inkscape:connector-curvature="0"
               id="path42495"
               d="m 626.17665,360.00856 c 0,0 -17.22854,-0.84744 -18.194,-16.67783 -0.53536,-8.77803 7.98172,-17.47832 16.98106,-16.67782 17.03742,1.5155 24.09546,20.25991 22.74249,34.87182 -0.80459,8.6895 -4.62734,24.11188 -14.55519,24.56189 -6.57262,0.29793 -10.21981,-4.61881 -10.0067,-11.82609 1.24126,1.24126 3.82849,5.57642 9.62364,4.62663 3.54387,-0.58082 8.08424,-2.63958 9.48006,-15.54303 0.92707,-8.57017 -2.23825,-18.90823 -9.097,-18.49723 -11.32391,0.67857 -6.97436,15.16166 -6.97436,15.16166 z"
               style="fill:#ffd700;fill-opacity:1;stroke:none" /><path
               style="fill:#ffd700;fill-opacity:1;stroke:none"
               d="m 624.3125,358.28125 c -0.28483,-1.48934 -0.51269,-3.44887 -0.3125,-5.71875 0.17929,-2.03288 0.71824,-4.20457 2.15625,-5.96875 1.43801,-1.76418 3.76386,-2.9992 6.90625,-3.1875 2.08203,-0.12476 3.98785,0.60154 5.46875,1.84375 1.4809,1.24221 2.57614,2.95282 3.40625,4.90625 1.66021,3.90687 2.23908,8.82252 1.75,13.34375 -0.1186,1.09634 0.71382,1.53446 0.55169,2.59681 -0.8153,5.34226 -3.13401,10.70567 -4.80169,12.79991 -1.99931,2.5107 -4.49535,3.36919 -6.4375,3.6875 -3.27716,0.53711 -6.24425,-2.08527 -7.59375,-4.02172 -0.14223,-0.20409 -0.19081,-0.22179 -0.375,-0.375 0.35839,1.53939 0.88141,2.88349 1.6875,3.875 1.42436,1.752 3.46081,2.72585 6.375,2.59375 4.22721,-0.19161 7.27686,-3.57857 9.46875,-8.34375 2.19189,-4.76518 3.32861,-10.6928 3.71875,-14.90625 -0.47113,-21.83522 -16.55585,-28.7929 -24.2115,-20.6716 -7.28066,7.72349 -2.81288,17.51576 2.24275,17.5466 z"
               id="path42497"
               inkscape:connector-curvature="0"
               sodipodi:nodetypes="csssssssssscssscsc" /></g><path
             style="fill:#ffd700;fill-opacity:1;stroke:none"
             d="m 638.70623,336.40503 c -6.84795,-9.67476 -18.63555,-8.62652 -23.51025,-4.00497 -2.8754,2.72606 -6.78775,8.1438 -2.93931,16.88176 -0.0255,-7.9677 1.94898,-11.15885 5.06731,-13.44407 4.61317,-3.3807 12.67707,-3.92109 21.38225,0.56728 z"
             id="path42499"
             inkscape:connector-curvature="0"
             sodipodi:nodetypes="cscsc" /></g><g
           id="g42501"
           style="fill:#ffd700;stroke:none;fill-opacity:1"><path
             style="fill:#ffd700;fill-opacity:1;stroke:none"
             d="m 636.56803,359.4021 34.69124,0 4,4.24527 -4,4.24527 -34.69124,0 -4,-4.24527 z"
             id="path42503"
             inkscape:connector-curvature="0"
             sodipodi:nodetypes="ccccccc" /><path
             style="fill:#ffd700;fill-opacity:1;stroke:none"
             d="m 637.0625,360.24145 -1.9375,2.03125 37.5625,0 -1.9375,-2.03125 z"
             id="path42505"
             inkscape:connector-curvature="0"
             sodipodi:nodetypes="ccccc" /><path
             style="fill:#ffd700;fill-opacity:1;stroke:none"
             d="m 634.97632,365.00855 1.96875,2.0625 33.6875,0 1.96875,-2.0625 z"
             id="path42507"
             inkscape:connector-curvature="0"
             sodipodi:nodetypes="ccccc" /></g></g></g></g><flowRoot
     xml:space="preserve"
     id="flowRoot5289"
     style="fill:black;stroke:none;stroke-opacity:1;stroke-width:1px;stroke-linejoin:miter;stroke-linecap:butt;fill-opacity:1;font-family:sans-serif;font-style:normal;font-weight:normal;font-size:10px;line-height:125%;letter-spacing:0px;word-spacing:0px"><flowRegion
       id="flowRegion5291"><rect
         id="rect5293"
         width="55.037998"
         height="27.500031"
         x="17.518999"
         y="17.50197" /></flowRegion><flowPara
       id="flowPara5295" /></flowRoot><flowRoot
     xml:space="preserve"
     id="flowRoot5297"
     style="font-style:normal;font-variant:normal;font-weight:bold;font-stretch:normal;font-size:10.34759617px;line-height:125%;font-family:GaramondNo8;-inkscape-font-specification:'GaramondNo8 Bold';text-align:center;letter-spacing:0px;word-spacing:0px;text-anchor:middle;fill:#000000;fill-opacity:1;stroke:none;stroke-width:1px;stroke-linecap:butt;stroke-linejoin:miter;stroke-opacity:1;"
     transform="translate(56.531625,-8.9590308)"><flowRegion
       id="flowRegion5299"><rect
         id="rect5301"
         width="55.337406"
         height="34.216854"
         x="-39.280575"
         y="52.18705"
         style="font-style:normal;font-variant:normal;font-weight:bold;font-stretch:normal;font-size:10.34759617px;font-family:GaramondNo8;-inkscape-font-specification:'GaramondNo8 Bold';text-align:center;text-anchor:middle;fill:#000000;" /></flowRegion><flowPara
       id="flowPara5303">France</flowPara></flowRoot><g
     transform="matrix(0.81201672,0,0,0.81201672,-83.058542,-4.4131995)"
     id="g5235"><rect
       rx="9.5121193"
       ry="9.5121193"
       y="26.988569"
       x="144.41798"
       height="15.448"
       width="26.572664"
       id="rect4887-5-3"
       style="fill:#4d4d4d;fill-opacity:1" /><text
       inkscape:transform-center-y="-4.9090927"
       inkscape:transform-center-x="-40.877228"
       sodipodi:linespacing="125%"
       id="text4883-4-6"
       y="39.277569"
       x="154.28745"
       style="font-style:normal;font-weight:normal;font-size:13.23529434px;line-height:125%;font-family:sans-serif;letter-spacing:0px;word-spacing:0px;fill:#ffffff;fill-opacity:1;stroke:none"
       xml:space="preserve"><tspan
         style="font-style:normal;font-variant:normal;font-weight:bold;font-stretch:normal;font-size:13.75px;font-family:GaramondNo8;-inkscape-font-specification:'GaramondNo8 Bold';fill:#ffffff"
         y="39.277569"
         x="154.28745"
         id="tspan4885-6-7"
         sodipodi:role="line">6</tspan></text>
</g></svg>